EESchema Schematic File Version 2
LIBS:power
LIBS:device
LIBS:transistors
LIBS:conn
LIBS:linear
LIBS:regul
LIBS:74xx
LIBS:cmos4000
LIBS:adc-dac
LIBS:memory
LIBS:xilinx
LIBS:special
LIBS:microcontrollers
LIBS:dsp
LIBS:microchip
LIBS:analog_switches
LIBS:motorola
LIBS:texas
LIBS:intel
LIBS:audio
LIBS:interface
LIBS:digital-audio
LIBS:philips
LIBS:display
LIBS:cypress
LIBS:siliconi
LIBS:opto
LIBS:atmel
LIBS:contrib
LIBS:valves
LIBS:4Squared
LIBS:CameraTrigger
LIBS:node
LIBS:4Squared-cache
EELAYER 25 0
EELAYER END
$Descr A4 11693 8268
encoding utf-8
Sheet 1 2
Title "Tr3llis"
Date "Wednesday, 13 May 2015"
Rev "0.1"
Comp "Gregory Davill"
Comment1 ""
Comment2 ""
Comment3 ""
Comment4 ""
$EndDescr
$Comp
L TLC5955 IC1
U 1 1 555175B8
P 2600 5850
F 0 "IC1" H 1600 6950 60  0000 C CNN
F 1 "TLC5955" H 3500 4750 60  0000 C CNN
F 2 "4Squared:QFN-56-1EP_8x8mm_Pitch0.5mm" H 2050 6300 60  0001 C CNN
F 3 "" H 2050 6300 60  0000 C CNN
	1    2600 5850
	1    0    0    -1  
$EndComp
Text Label 1100 6000 0    60   ~ 0
G11
Text Label 1100 6100 0    60   ~ 0
R11
Text Label 1100 6200 0    60   ~ 0
B11
Text Label 1100 6300 0    60   ~ 0
G15
Text Label 1100 6400 0    60   ~ 0
R15
Text Label 1100 6500 0    60   ~ 0
B15
Text Label 1100 5700 0    60   ~ 0
G7
Text Label 1100 5600 0    60   ~ 0
R7
Text Label 1100 5500 0    60   ~ 0
B7
Text Label 1100 5400 0    60   ~ 0
G3
Text Label 1100 5300 0    60   ~ 0
R3
Text Label 1100 5200 0    60   ~ 0
B3
Text Label 1950 7300 1    60   ~ 0
G10
Text Label 2050 7300 1    60   ~ 0
R10
Text Label 2150 7300 1    60   ~ 0
B10
Text Label 2250 7300 1    60   ~ 0
G14
Text Label 2350 7300 1    60   ~ 0
R14
Text Label 2450 7300 1    60   ~ 0
B14
Text Label 2550 7300 1    60   ~ 0
G13
Text Label 2650 7300 1    60   ~ 0
R13
Text Label 2750 7300 1    60   ~ 0
B13
Text Label 2850 7300 1    60   ~ 0
G9
Text Label 2950 7300 1    60   ~ 0
R9
Text Label 3050 7300 1    60   ~ 0
B9
Text Label 3150 7300 1    60   ~ 0
G12
Text Label 3250 7300 1    60   ~ 0
R12
Text Label 3950 6500 0    60   ~ 0
B12
Text Label 3950 6400 0    60   ~ 0
G8
Text Label 3950 6300 0    60   ~ 0
R8
Text Label 3950 6200 0    60   ~ 0
B8
Text Label 3950 5500 0    60   ~ 0
B4
Text Label 3950 5400 0    60   ~ 0
R4
Text Label 3950 5300 0    60   ~ 0
G4
Text Label 3950 5200 0    60   ~ 0
B0
Text Label 3250 4500 1    60   ~ 0
R0
Text Label 3150 4500 1    60   ~ 0
G0
Text Label 3050 4500 1    60   ~ 0
B5
Text Label 2950 4500 1    60   ~ 0
R5
Text Label 2850 4500 1    60   ~ 0
G5
Text Label 2750 4500 1    60   ~ 0
B1
Text Label 2650 4500 1    60   ~ 0
R1
Text Label 2550 4500 1    60   ~ 0
G1
Text Label 2450 4500 1    60   ~ 0
B2
Text Label 2350 4500 1    60   ~ 0
R2
Text Label 2250 4500 1    60   ~ 0
G2
Text Label 2150 4500 1    60   ~ 0
B6
Text Label 2050 4500 1    60   ~ 0
R6
Text Label 1950 4500 1    60   ~ 0
G6
$Comp
L Led_RGB_CA D1
U 1 1 55517972
P 1350 1300
F 0 "D1" H 1275 1650 50  0000 C CNN
F 1 "Led_RGB_CA" H 1325 950 50  0000 C CNN
F 2 "4Squared:LITEON_RGB" H 1395 1250 50  0001 C CNN
F 3 "" H 1395 1250 50  0000 C CNN
	1    1350 1300
	1    0    0    -1  
$EndComp
$Comp
L Led_RGB_CA D3
U 1 1 55517E81
P 2400 1300
F 0 "D3" H 2325 1650 50  0000 C CNN
F 1 "Led_RGB_CA" H 2375 950 50  0000 C CNN
F 2 "4Squared:LITEON_RGB" H 2445 1250 50  0001 C CNN
F 3 "" H 2445 1250 50  0000 C CNN
	1    2400 1300
	1    0    0    -1  
$EndComp
$Comp
L Led_RGB_CA D5
U 1 1 55517F30
P 3450 1300
F 0 "D5" H 3375 1650 50  0000 C CNN
F 1 "Led_RGB_CA" H 3425 950 50  0000 C CNN
F 2 "4Squared:LITEON_RGB" H 3495 1250 50  0001 C CNN
F 3 "" H 3495 1250 50  0000 C CNN
	1    3450 1300
	1    0    0    -1  
$EndComp
$Comp
L Led_RGB_CA D7
U 1 1 55517F3B
P 4500 1300
F 0 "D7" H 4425 1650 50  0000 C CNN
F 1 "Led_RGB_CA" H 4475 950 50  0000 C CNN
F 2 "4Squared:LITEON_RGB" H 4545 1250 50  0001 C CNN
F 3 "" H 4545 1250 50  0000 C CNN
	1    4500 1300
	1    0    0    -1  
$EndComp
$Comp
L Led_RGB_CA D9
U 1 1 5551810B
P 5550 1300
F 0 "D9" H 5475 1650 50  0000 C CNN
F 1 "Led_RGB_CA" H 5525 950 50  0000 C CNN
F 2 "4Squared:LITEON_RGB" H 5595 1250 50  0001 C CNN
F 3 "" H 5595 1250 50  0000 C CNN
	1    5550 1300
	1    0    0    -1  
$EndComp
$Comp
L Led_RGB_CA D11
U 1 1 55518116
P 6600 1300
F 0 "D11" H 6525 1650 50  0000 C CNN
F 1 "Led_RGB_CA" H 6575 950 50  0000 C CNN
F 2 "4Squared:LITEON_RGB" H 6645 1250 50  0001 C CNN
F 3 "" H 6645 1250 50  0000 C CNN
	1    6600 1300
	1    0    0    -1  
$EndComp
$Comp
L Led_RGB_CA D13
U 1 1 55518121
P 7650 1300
F 0 "D13" H 7575 1650 50  0000 C CNN
F 1 "Led_RGB_CA" H 7625 950 50  0000 C CNN
F 2 "4Squared:LITEON_RGB" H 7695 1250 50  0001 C CNN
F 3 "" H 7695 1250 50  0000 C CNN
	1    7650 1300
	1    0    0    -1  
$EndComp
$Comp
L Led_RGB_CA D15
U 1 1 5551812C
P 8700 1300
F 0 "D15" H 8625 1650 50  0000 C CNN
F 1 "Led_RGB_CA" H 8675 950 50  0000 C CNN
F 2 "4Squared:LITEON_RGB" H 8745 1250 50  0001 C CNN
F 3 "" H 8745 1250 50  0000 C CNN
	1    8700 1300
	1    0    0    -1  
$EndComp
$Comp
L Led_RGB_CA D2
U 1 1 5551836C
P 1350 2400
F 0 "D2" H 1275 2750 50  0000 C CNN
F 1 "Led_RGB_CA" H 1325 2050 50  0000 C CNN
F 2 "4Squared:LITEON_RGB" H 1395 2350 50  0001 C CNN
F 3 "" H 1395 2350 50  0000 C CNN
	1    1350 2400
	1    0    0    -1  
$EndComp
$Comp
L Led_RGB_CA D4
U 1 1 55518378
P 2400 2400
F 0 "D4" H 2325 2750 50  0000 C CNN
F 1 "Led_RGB_CA" H 2375 2050 50  0000 C CNN
F 2 "4Squared:LITEON_RGB" H 2445 2350 50  0001 C CNN
F 3 "" H 2445 2350 50  0000 C CNN
	1    2400 2400
	1    0    0    -1  
$EndComp
$Comp
L Led_RGB_CA D6
U 1 1 55518383
P 3450 2400
F 0 "D6" H 3375 2750 50  0000 C CNN
F 1 "Led_RGB_CA" H 3425 2050 50  0000 C CNN
F 2 "4Squared:LITEON_RGB" H 3495 2350 50  0001 C CNN
F 3 "" H 3495 2350 50  0000 C CNN
	1    3450 2400
	1    0    0    -1  
$EndComp
$Comp
L Led_RGB_CA D8
U 1 1 5551838E
P 4500 2400
F 0 "D8" H 4425 2750 50  0000 C CNN
F 1 "Led_RGB_CA" H 4475 2050 50  0000 C CNN
F 2 "4Squared:LITEON_RGB" H 4545 2350 50  0001 C CNN
F 3 "" H 4545 2350 50  0000 C CNN
	1    4500 2400
	1    0    0    -1  
$EndComp
$Comp
L Led_RGB_CA D10
U 1 1 55518399
P 5550 2400
F 0 "D10" H 5475 2750 50  0000 C CNN
F 1 "Led_RGB_CA" H 5525 2050 50  0000 C CNN
F 2 "4Squared:LITEON_RGB" H 5595 2350 50  0001 C CNN
F 3 "" H 5595 2350 50  0000 C CNN
	1    5550 2400
	1    0    0    -1  
$EndComp
$Comp
L Led_RGB_CA D12
U 1 1 555183A4
P 6600 2400
F 0 "D12" H 6525 2750 50  0000 C CNN
F 1 "Led_RGB_CA" H 6575 2050 50  0000 C CNN
F 2 "4Squared:LITEON_RGB" H 6645 2350 50  0001 C CNN
F 3 "" H 6645 2350 50  0000 C CNN
	1    6600 2400
	1    0    0    -1  
$EndComp
$Comp
L Led_RGB_CA D14
U 1 1 555183AF
P 7650 2400
F 0 "D14" H 7575 2750 50  0000 C CNN
F 1 "Led_RGB_CA" H 7625 2050 50  0000 C CNN
F 2 "4Squared:LITEON_RGB" H 7695 2350 50  0001 C CNN
F 3 "" H 7695 2350 50  0000 C CNN
	1    7650 2400
	1    0    0    -1  
$EndComp
$Comp
L Led_RGB_CA D16
U 1 1 555183BA
P 8700 2400
F 0 "D16" H 8625 2750 50  0000 C CNN
F 1 "Led_RGB_CA" H 8675 2050 50  0000 C CNN
F 2 "4Squared:LITEON_RGB" H 8745 2350 50  0001 C CNN
F 3 "" H 8745 2350 50  0000 C CNN
	1    8700 2400
	1    0    0    -1  
$EndComp
$Comp
L +5V #PWR01
U 1 1 555189A7
P 900 650
F 0 "#PWR01" H 900 500 50  0001 C CNN
F 1 "+5V" H 900 790 50  0000 C CNN
F 2 "" H 900 650 60  0000 C CNN
F 3 "" H 900 650 60  0000 C CNN
	1    900  650 
	1    0    0    -1  
$EndComp
$Comp
L +5V #PWR02
U 1 1 55518BA6
P 900 1700
F 0 "#PWR02" H 900 1550 50  0001 C CNN
F 1 "+5V" H 900 1840 50  0000 C CNN
F 2 "" H 900 1700 60  0000 C CNN
F 3 "" H 900 1700 60  0000 C CNN
	1    900  1700
	1    0    0    -1  
$EndComp
Text Label 1650 1100 0    60   ~ 0
R0
Text Label 1650 1300 0    60   ~ 0
G0
Text Label 1650 1500 0    60   ~ 0
B0
Text Label 2700 1100 0    60   ~ 0
R1
Text Label 2700 1300 0    60   ~ 0
G1
Text Label 2700 1500 0    60   ~ 0
B1
Text Label 3750 1100 0    60   ~ 0
R2
Text Label 4800 1100 0    60   ~ 0
R3
Text Label 5850 1100 0    60   ~ 0
R4
Text Label 6900 1100 0    60   ~ 0
R5
Text Label 7950 1100 0    60   ~ 0
R6
Text Label 9000 1100 0    60   ~ 0
R7
Text Label 3750 1300 0    60   ~ 0
G2
Text Label 4800 1300 0    60   ~ 0
G3
Text Label 5850 1300 0    60   ~ 0
G4
Text Label 6900 1300 0    60   ~ 0
G5
Text Label 7950 1300 0    60   ~ 0
G6
Text Label 9000 1300 0    60   ~ 0
G7
Text Label 3750 1500 0    60   ~ 0
B2
Text Label 4800 1500 0    60   ~ 0
B3
Text Label 5850 1500 0    60   ~ 0
B4
Text Label 6900 1500 0    60   ~ 0
B5
Text Label 7950 1500 0    60   ~ 0
B6
Text Label 9000 1500 0    60   ~ 0
B7
Text Label 1650 2200 0    60   ~ 0
R8
Text Label 2700 2200 0    60   ~ 0
R9
Text Label 3750 2200 0    60   ~ 0
R10
Text Label 4800 2200 0    60   ~ 0
R11
Text Label 5850 2200 0    60   ~ 0
R12
Text Label 6900 2200 0    60   ~ 0
R13
Text Label 7950 2200 0    60   ~ 0
R14
Text Label 9000 2200 0    60   ~ 0
R15
Text Label 1650 2400 0    60   ~ 0
G8
Text Label 2700 2400 0    60   ~ 0
G9
Text Label 3750 2400 0    60   ~ 0
G10
Text Label 4800 2400 0    60   ~ 0
G11
Text Label 1650 2600 0    60   ~ 0
B8
Text Label 2700 2600 0    60   ~ 0
B9
Text Label 3750 2600 0    60   ~ 0
B10
Text Label 4800 2600 0    60   ~ 0
B11
Text Label 5850 2600 0    60   ~ 0
B12
Text Label 6900 2600 0    60   ~ 0
B13
Text Label 5850 2400 0    60   ~ 0
G12
Text Label 6900 2400 0    60   ~ 0
G13
Text Label 7950 2400 0    60   ~ 0
G14
Text Label 9000 2400 0    60   ~ 0
G15
Text Label 7950 2600 0    60   ~ 0
B14
Text Label 9000 2600 0    60   ~ 0
B15
$Comp
L MSP430F5508 IC2
U 1 1 5551FEA8
P 6500 4850
F 0 "IC2" H 5850 5850 60  0000 C CNN
F 1 "MSP430F5508" H 7950 3750 60  0000 C CNN
F 2 "Housings_DFN_QFN:QFN-64-1EP_9x9mm_Pitch0.5mm" H 6500 4850 60  0001 C CNN
F 3 "" H 6500 4850 60  0000 C CNN
	1    6500 4850
	1    0    0    -1  
$EndComp
$Comp
L USB-MICRO-B CON1
U 1 1 55520BD9
P 10200 3550
F 0 "CON1" H 9900 3900 50  0000 C CNN
F 1 "USB-MICRO-B" H 10050 3200 50  0000 C CNN
F 2 "Connect:USB_Micro-B" H 10200 3450 50  0001 C CNN
F 3 "" H 10200 3450 50  0000 C CNN
	1    10200 3550
	1    0    0    -1  
$EndComp
$Sheet
S 9250 5000 1800 1250
U 555219FE
F0 "4Squared_buttons" 60
F1 "4Squared_buttons.sch" 60
F2 "B[1...16]" I L 9250 5600 60 
$EndSheet
Entry Wire Line
	6400 6150 6500 6250
Entry Wire Line
	6200 6150 6300 6250
Entry Wire Line
	6300 6150 6400 6250
Entry Wire Line
	6500 6150 6600 6250
Entry Wire Line
	6600 6150 6700 6250
Entry Wire Line
	6700 6150 6800 6250
Entry Wire Line
	6800 6150 6900 6250
Entry Wire Line
	6900 6150 7000 6250
Entry Wire Line
	7000 6150 7100 6250
Entry Wire Line
	7100 6150 7200 6250
Entry Wire Line
	7200 6150 7300 6250
Entry Wire Line
	7300 6150 7400 6250
Entry Wire Line
	7400 6150 7500 6250
Entry Wire Line
	7500 6150 7600 6250
Entry Wire Line
	7600 6150 7700 6250
Entry Wire Line
	8400 5700 8500 5800
Text Label 8100 5700 0    60   ~ 0
S16
Text Label 6200 6150 1    60   ~ 0
S1
Text Label 6300 6150 1    60   ~ 0
S2
Text Label 6400 6150 1    60   ~ 0
S3
Text Label 6500 6150 1    60   ~ 0
S4
Text Label 6600 6150 1    60   ~ 0
S5
Text Label 6700 6150 1    60   ~ 0
S6
Text Label 6800 6150 1    60   ~ 0
S7
Text Label 6900 6150 1    60   ~ 0
S8
Text Label 7000 6150 1    60   ~ 0
S9
Text Label 7100 6150 1    60   ~ 0
S10
Text Label 7200 6150 1    60   ~ 0
S11
Text Label 7300 6150 1    60   ~ 0
S12
Text Label 7400 6150 1    60   ~ 0
S13
Text Label 7500 6150 1    60   ~ 0
S14
Text Label 7600 6150 1    60   ~ 0
S15
$Comp
L CRYSTAL_SMD X1
U 1 1 55524090
P 6400 3150
F 0 "X1" H 6400 3240 50  0000 C CNN
F 1 "CRYSTAL_SMD" H 6430 3040 50  0000 L CNN
F 2 "4Squared:CSTCR_G15C" H 6400 3150 60  0001 C CNN
F 3 "" H 6400 3150 60  0000 C CNN
	1    6400 3150
	1    0    0    -1  
$EndComp
$Comp
L GND #PWR03
U 1 1 555244D8
P 6400 3250
F 0 "#PWR03" H 6400 3000 50  0001 C CNN
F 1 "GND" H 6400 3100 50  0000 C CNN
F 2 "" H 6400 3250 60  0000 C CNN
F 3 "" H 6400 3250 60  0000 C CNN
	1    6400 3250
	1    0    0    -1  
$EndComp
$Comp
L C C1
U 1 1 555254B8
P 1550 3500
F 0 "C1" H 1575 3600 50  0000 L CNN
F 1 "C" H 1575 3400 50  0000 L CNN
F 2 "Capacitors_SMD:C_0402" H 1588 3350 30  0001 C CNN
F 3 "" H 1550 3500 60  0000 C CNN
	1    1550 3500
	1    0    0    -1  
$EndComp
$Comp
L C C2
U 1 1 555258DE
P 1850 3500
F 0 "C2" H 1875 3600 50  0000 L CNN
F 1 "C" H 1875 3400 50  0000 L CNN
F 2 "Capacitors_SMD:C_0402" H 1888 3350 30  0001 C CNN
F 3 "" H 1850 3500 60  0000 C CNN
	1    1850 3500
	1    0    0    -1  
$EndComp
$Comp
L C C3
U 1 1 5552592B
P 2150 3500
F 0 "C3" H 2175 3600 50  0000 L CNN
F 1 "C" H 2175 3400 50  0000 L CNN
F 2 "Capacitors_SMD:C_0402" H 2188 3350 30  0001 C CNN
F 3 "" H 2150 3500 60  0000 C CNN
	1    2150 3500
	1    0    0    -1  
$EndComp
$Comp
L C C4
U 1 1 555259B7
P 2450 3500
F 0 "C4" H 2475 3600 50  0000 L CNN
F 1 "C" H 2475 3400 50  0000 L CNN
F 2 "Capacitors_SMD:C_0402" H 2488 3350 30  0001 C CNN
F 3 "" H 2450 3500 60  0000 C CNN
	1    2450 3500
	1    0    0    -1  
$EndComp
$Comp
L C C5
U 1 1 55525A04
P 2700 3500
F 0 "C5" H 2725 3600 50  0000 L CNN
F 1 "C" H 2725 3400 50  0000 L CNN
F 2 "Capacitors_SMD:C_0402" H 2738 3350 30  0001 C CNN
F 3 "" H 2700 3500 60  0000 C CNN
	1    2700 3500
	1    0    0    -1  
$EndComp
$Comp
L R R2
U 1 1 55526AF1
P 8600 3350
F 0 "R2" V 8680 3350 50  0000 C CNN
F 1 "R" V 8600 3350 50  0000 C CNN
F 2 "Resistors_SMD:R_0402" V 8530 3350 30  0001 C CNN
F 3 "" H 8600 3350 30  0000 C CNN
	1    8600 3350
	0    1    1    0   
$EndComp
$Comp
L R R1
U 1 1 55526B95
P 7950 3450
F 0 "R1" V 8030 3450 50  0000 C CNN
F 1 "R" V 7950 3450 50  0000 C CNN
F 2 "Resistors_SMD:R_0402" V 7880 3450 30  0001 C CNN
F 3 "" H 7950 3450 30  0000 C CNN
	1    7950 3450
	0    1    1    0   
$EndComp
$Comp
L R R3
U 1 1 55526C0E
P 8600 3550
F 0 "R3" V 8680 3550 50  0000 C CNN
F 1 "R" V 8600 3550 50  0000 C CNN
F 2 "Resistors_SMD:R_0402" V 8530 3550 30  0001 C CNN
F 3 "" H 8600 3550 30  0000 C CNN
	1    8600 3550
	0    1    1    0   
$EndComp
$Comp
L GND #PWR04
U 1 1 555272DB
P 7000 3200
F 0 "#PWR04" H 7000 2950 50  0001 C CNN
F 1 "GND" H 7000 3050 50  0000 C CNN
F 2 "" H 7000 3200 60  0000 C CNN
F 3 "" H 7000 3200 60  0000 C CNN
	1    7000 3200
	1    0    0    -1  
$EndComp
$Comp
L GND #PWR05
U 1 1 55527366
P 8150 3850
F 0 "#PWR05" H 8150 3600 50  0001 C CNN
F 1 "GND" H 8150 3700 50  0000 C CNN
F 2 "" H 8150 3850 60  0000 C CNN
F 3 "" H 8150 3850 60  0000 C CNN
	1    8150 3850
	1    0    0    -1  
$EndComp
$Comp
L +1V8 #PWR06
U 1 1 55527D77
P 7000 3700
F 0 "#PWR06" H 7000 3550 50  0001 C CNN
F 1 "+1V8" H 7000 3840 50  0000 C CNN
F 2 "" H 7000 3700 60  0000 C CNN
F 3 "" H 7000 3700 60  0000 C CNN
	1    7000 3700
	1    0    0    -1  
$EndComp
$Comp
L +3V3 #PWR07
U 1 1 55527F82
P 7100 3550
F 0 "#PWR07" H 7100 3400 50  0001 C CNN
F 1 "+3V3" H 7100 3690 50  0000 C CNN
F 2 "" H 7100 3550 60  0000 C CNN
F 3 "" H 7100 3550 60  0000 C CNN
	1    7100 3550
	1    0    0    -1  
$EndComp
$Comp
L +5V #PWR08
U 1 1 55527FB5
P 7200 3400
F 0 "#PWR08" H 7200 3250 50  0001 C CNN
F 1 "+5V" H 7200 3540 50  0000 C CNN
F 2 "" H 7200 3400 60  0000 C CNN
F 3 "" H 7200 3400 60  0000 C CNN
	1    7200 3400
	1    0    0    -1  
$EndComp
Text Label 6100 3750 1    60   ~ 0
TDIO
Text Label 6600 3750 1    60   ~ 0
TCK
Text Label 9000 3450 0    60   ~ 0
D-
Text Label 9000 3550 0    60   ~ 0
D+
$Comp
L +5V #PWR09
U 1 1 5552B77E
P 1550 3350
F 0 "#PWR09" H 1550 3200 50  0001 C CNN
F 1 "+5V" H 1550 3490 50  0000 C CNN
F 2 "" H 1550 3350 60  0000 C CNN
F 3 "" H 1550 3350 60  0000 C CNN
	1    1550 3350
	1    0    0    -1  
$EndComp
$Comp
L +5V #PWR010
U 1 1 5552B7CB
P 1850 3350
F 0 "#PWR010" H 1850 3200 50  0001 C CNN
F 1 "+5V" H 1850 3490 50  0000 C CNN
F 2 "" H 1850 3350 60  0000 C CNN
F 3 "" H 1850 3350 60  0000 C CNN
	1    1850 3350
	1    0    0    -1  
$EndComp
$Comp
L +5V #PWR011
U 1 1 5552B811
P 2150 3350
F 0 "#PWR011" H 2150 3200 50  0001 C CNN
F 1 "+5V" H 2150 3490 50  0000 C CNN
F 2 "" H 2150 3350 60  0000 C CNN
F 3 "" H 2150 3350 60  0000 C CNN
	1    2150 3350
	1    0    0    -1  
$EndComp
$Comp
L +5V #PWR012
U 1 1 5552B8B8
P 2450 3350
F 0 "#PWR012" H 2450 3200 50  0001 C CNN
F 1 "+5V" H 2450 3490 50  0000 C CNN
F 2 "" H 2450 3350 60  0000 C CNN
F 3 "" H 2450 3350 60  0000 C CNN
	1    2450 3350
	1    0    0    -1  
$EndComp
$Comp
L +5V #PWR013
U 1 1 5552B8FE
P 2700 3350
F 0 "#PWR013" H 2700 3200 50  0001 C CNN
F 1 "+5V" H 2700 3490 50  0000 C CNN
F 2 "" H 2700 3350 60  0000 C CNN
F 3 "" H 2700 3350 60  0000 C CNN
	1    2700 3350
	1    0    0    -1  
$EndComp
$Comp
L C C8
U 1 1 5552BDD7
P 3700 3500
F 0 "C8" H 3725 3600 50  0000 L CNN
F 1 "100n" H 3725 3400 50  0000 L CNN
F 2 "Capacitors_SMD:C_0402" H 3738 3350 30  0001 C CNN
F 3 "" H 3700 3500 60  0000 C CNN
	1    3700 3500
	1    0    0    -1  
$EndComp
$Comp
L C C9
U 1 1 5552BDDD
P 4000 3500
F 0 "C9" H 4025 3600 50  0000 L CNN
F 1 "4u7" H 4025 3400 50  0000 L CNN
F 2 "Capacitors_SMD:C_0402" H 4038 3350 30  0001 C CNN
F 3 "" H 4000 3500 60  0000 C CNN
	1    4000 3500
	1    0    0    -1  
$EndComp
$Comp
L C C10
U 1 1 5552BDE3
P 4300 3500
F 0 "C10" H 4325 3600 50  0000 L CNN
F 1 "1u" H 4325 3400 50  0000 L CNN
F 2 "Capacitors_SMD:C_0402" H 4338 3350 30  0001 C CNN
F 3 "" H 4300 3500 60  0000 C CNN
	1    4300 3500
	1    0    0    -1  
$EndComp
$Comp
L C C11
U 1 1 5552BDE9
P 4600 3500
F 0 "C11" H 4625 3600 50  0000 L CNN
F 1 "4u7" H 4625 3400 50  0000 L CNN
F 2 "Capacitors_SMD:C_0402" H 4638 3350 30  0001 C CNN
F 3 "" H 4600 3500 60  0000 C CNN
	1    4600 3500
	1    0    0    -1  
$EndComp
$Comp
L C C12
U 1 1 5552BDEF
P 4850 3500
F 0 "C12" H 4875 3600 50  0000 L CNN
F 1 "1u" H 4875 3400 50  0000 L CNN
F 2 "Capacitors_SMD:C_0402" H 4888 3350 30  0001 C CNN
F 3 "" H 4850 3500 60  0000 C CNN
	1    4850 3500
	1    0    0    -1  
$EndComp
$Comp
L +3V3 #PWR014
U 1 1 5552BEF2
P 3700 3350
F 0 "#PWR014" H 3700 3200 50  0001 C CNN
F 1 "+3V3" H 3700 3490 50  0000 C CNN
F 2 "" H 3700 3350 60  0000 C CNN
F 3 "" H 3700 3350 60  0000 C CNN
	1    3700 3350
	1    0    0    -1  
$EndComp
$Comp
L +3V3 #PWR015
U 1 1 5552BF49
P 4000 3350
F 0 "#PWR015" H 4000 3200 50  0001 C CNN
F 1 "+3V3" H 4000 3490 50  0000 C CNN
F 2 "" H 4000 3350 60  0000 C CNN
F 3 "" H 4000 3350 60  0000 C CNN
	1    4000 3350
	1    0    0    -1  
$EndComp
$Comp
L +3V3 #PWR016
U 1 1 5552BFBA
P 4300 3350
F 0 "#PWR016" H 4300 3200 50  0001 C CNN
F 1 "+3V3" H 4300 3490 50  0000 C CNN
F 2 "" H 4300 3350 60  0000 C CNN
F 3 "" H 4300 3350 60  0000 C CNN
	1    4300 3350
	1    0    0    -1  
$EndComp
$Comp
L +1V8 #PWR017
U 1 1 5552C34E
P 4600 3350
F 0 "#PWR017" H 4600 3200 50  0001 C CNN
F 1 "+1V8" H 4600 3490 50  0000 C CNN
F 2 "" H 4600 3350 60  0000 C CNN
F 3 "" H 4600 3350 60  0000 C CNN
	1    4600 3350
	1    0    0    -1  
$EndComp
$Comp
L +1V8 #PWR018
U 1 1 5552C3A5
P 4850 3350
F 0 "#PWR018" H 4850 3200 50  0001 C CNN
F 1 "+1V8" H 4850 3490 50  0000 C CNN
F 2 "" H 4850 3350 60  0000 C CNN
F 3 "" H 4850 3350 60  0000 C CNN
	1    4850 3350
	1    0    0    -1  
$EndComp
$Comp
L C C7
U 1 1 5552CF8F
P 3350 3500
F 0 "C7" H 3375 3600 50  0000 L CNN
F 1 "100n" H 3375 3400 50  0000 L CNN
F 2 "Capacitors_SMD:C_0402" H 3388 3350 30  0001 C CNN
F 3 "" H 3350 3500 60  0000 C CNN
	1    3350 3500
	1    0    0    -1  
$EndComp
$Comp
L +3V3 #PWR019
U 1 1 5552CF95
P 3350 3350
F 0 "#PWR019" H 3350 3200 50  0001 C CNN
F 1 "+3V3" H 3350 3490 50  0000 C CNN
F 2 "" H 3350 3350 60  0000 C CNN
F 3 "" H 3350 3350 60  0000 C CNN
	1    3350 3350
	1    0    0    -1  
$EndComp
$Comp
L C C6
U 1 1 5552CFF6
P 3050 3500
F 0 "C6" H 3075 3600 50  0000 L CNN
F 1 "100n" H 3075 3400 50  0000 L CNN
F 2 "Capacitors_SMD:C_0402" H 3088 3350 30  0001 C CNN
F 3 "" H 3050 3500 60  0000 C CNN
	1    3050 3500
	1    0    0    -1  
$EndComp
$Comp
L +3V3 #PWR020
U 1 1 5552CFFC
P 3050 3350
F 0 "#PWR020" H 3050 3200 50  0001 C CNN
F 1 "+3V3" H 3050 3490 50  0000 C CNN
F 2 "" H 3050 3350 60  0000 C CNN
F 3 "" H 3050 3350 60  0000 C CNN
	1    3050 3350
	1    0    0    -1  
$EndComp
$Comp
L GND #PWR021
U 1 1 5552DEE1
P 1550 3650
F 0 "#PWR021" H 1550 3400 50  0001 C CNN
F 1 "GND" H 1550 3500 50  0000 C CNN
F 2 "" H 1550 3650 60  0000 C CNN
F 3 "" H 1550 3650 60  0000 C CNN
	1    1550 3650
	1    0    0    -1  
$EndComp
$Comp
L GND #PWR022
U 1 1 5552DF3C
P 1850 3650
F 0 "#PWR022" H 1850 3400 50  0001 C CNN
F 1 "GND" H 1850 3500 50  0000 C CNN
F 2 "" H 1850 3650 60  0000 C CNN
F 3 "" H 1850 3650 60  0000 C CNN
	1    1850 3650
	1    0    0    -1  
$EndComp
$Comp
L GND #PWR023
U 1 1 5552DF90
P 2150 3650
F 0 "#PWR023" H 2150 3400 50  0001 C CNN
F 1 "GND" H 2150 3500 50  0000 C CNN
F 2 "" H 2150 3650 60  0000 C CNN
F 3 "" H 2150 3650 60  0000 C CNN
	1    2150 3650
	1    0    0    -1  
$EndComp
$Comp
L GND #PWR024
U 1 1 5552DFE4
P 2450 3650
F 0 "#PWR024" H 2450 3400 50  0001 C CNN
F 1 "GND" H 2450 3500 50  0000 C CNN
F 2 "" H 2450 3650 60  0000 C CNN
F 3 "" H 2450 3650 60  0000 C CNN
	1    2450 3650
	1    0    0    -1  
$EndComp
$Comp
L GND #PWR025
U 1 1 5552E038
P 2700 3650
F 0 "#PWR025" H 2700 3400 50  0001 C CNN
F 1 "GND" H 2700 3500 50  0000 C CNN
F 2 "" H 2700 3650 60  0000 C CNN
F 3 "" H 2700 3650 60  0000 C CNN
	1    2700 3650
	1    0    0    -1  
$EndComp
$Comp
L GND #PWR026
U 1 1 5552E08C
P 3050 3650
F 0 "#PWR026" H 3050 3400 50  0001 C CNN
F 1 "GND" H 3050 3500 50  0000 C CNN
F 2 "" H 3050 3650 60  0000 C CNN
F 3 "" H 3050 3650 60  0000 C CNN
	1    3050 3650
	1    0    0    -1  
$EndComp
$Comp
L GND #PWR027
U 1 1 5552E0E0
P 3350 3650
F 0 "#PWR027" H 3350 3400 50  0001 C CNN
F 1 "GND" H 3350 3500 50  0000 C CNN
F 2 "" H 3350 3650 60  0000 C CNN
F 3 "" H 3350 3650 60  0000 C CNN
	1    3350 3650
	1    0    0    -1  
$EndComp
$Comp
L GND #PWR028
U 1 1 5552E134
P 3700 3650
F 0 "#PWR028" H 3700 3400 50  0001 C CNN
F 1 "GND" H 3700 3500 50  0000 C CNN
F 2 "" H 3700 3650 60  0000 C CNN
F 3 "" H 3700 3650 60  0000 C CNN
	1    3700 3650
	1    0    0    -1  
$EndComp
$Comp
L GND #PWR029
U 1 1 5552E188
P 4000 3650
F 0 "#PWR029" H 4000 3400 50  0001 C CNN
F 1 "GND" H 4000 3500 50  0000 C CNN
F 2 "" H 4000 3650 60  0000 C CNN
F 3 "" H 4000 3650 60  0000 C CNN
	1    4000 3650
	1    0    0    -1  
$EndComp
$Comp
L GND #PWR030
U 1 1 5552E1DC
P 4300 3650
F 0 "#PWR030" H 4300 3400 50  0001 C CNN
F 1 "GND" H 4300 3500 50  0000 C CNN
F 2 "" H 4300 3650 60  0000 C CNN
F 3 "" H 4300 3650 60  0000 C CNN
	1    4300 3650
	1    0    0    -1  
$EndComp
$Comp
L GND #PWR031
U 1 1 5552E230
P 4600 3650
F 0 "#PWR031" H 4600 3400 50  0001 C CNN
F 1 "GND" H 4600 3500 50  0000 C CNN
F 2 "" H 4600 3650 60  0000 C CNN
F 3 "" H 4600 3650 60  0000 C CNN
	1    4600 3650
	1    0    0    -1  
$EndComp
$Comp
L GND #PWR032
U 1 1 5552E284
P 4850 3650
F 0 "#PWR032" H 4850 3400 50  0001 C CNN
F 1 "GND" H 4850 3500 50  0000 C CNN
F 2 "" H 4850 3650 60  0000 C CNN
F 3 "" H 4850 3650 60  0000 C CNN
	1    4850 3650
	1    0    0    -1  
$EndComp
Text Label 3950 5600 0    60   ~ 0
LAT
Text Label 3950 5700 0    60   ~ 0
SCLK
Text Label 3950 5800 0    60   ~ 0
SIN
Text Label 3950 6000 0    60   ~ 0
GSCLK
$Comp
L GND #PWR033
U 1 1 55530E47
P 4300 6700
F 0 "#PWR033" H 4300 6450 50  0001 C CNN
F 1 "GND" H 4300 6550 50  0000 C CNN
F 2 "" H 4300 6700 60  0000 C CNN
F 3 "" H 4300 6700 60  0000 C CNN
	1    4300 6700
	1    0    0    -1  
$EndComp
$Comp
L +5V #PWR034
U 1 1 55531095
P 4400 5100
F 0 "#PWR034" H 4400 4950 50  0001 C CNN
F 1 "+5V" H 4400 5240 50  0000 C CNN
F 2 "" H 4400 5100 60  0000 C CNN
F 3 "" H 4400 5100 60  0000 C CNN
	1    4400 5100
	1    0    0    -1  
$EndComp
$Comp
L GND #PWR035
U 1 1 55531EE1
P 950 6600
F 0 "#PWR035" H 950 6350 50  0001 C CNN
F 1 "GND" H 950 6450 50  0000 C CNN
F 2 "" H 950 6600 60  0000 C CNN
F 3 "" H 950 6600 60  0000 C CNN
	1    950  6600
	1    0    0    -1  
$EndComp
Text Label 650  5750 1    60   ~ 0
SOUT
Text Label 8100 5600 0    60   ~ 0
SIN
Text Label 8100 5400 0    60   ~ 0
SCLK
Text Label 8100 5500 0    60   ~ 0
SOUT
$Comp
L R R4
U 1 1 5553882D
P 900 5800
F 0 "R4" V 980 5800 50  0000 C CNN
F 1 "R" V 900 5800 50  0000 C CNN
F 2 "Resistors_SMD:R_0402" V 830 5800 30  0001 C CNN
F 3 "" H 900 5800 30  0000 C CNN
	1    900  5800
	0    1    1    0   
$EndComp
Text Label 8100 4500 0    60   ~ 0
TX
Text Label 8100 4400 0    60   ~ 0
RX
$Comp
L +3V3 #PWR036
U 1 1 55539DAA
P 8600 4000
F 0 "#PWR036" H 8600 3850 50  0001 C CNN
F 1 "+3V3" H 8600 4140 50  0000 C CNN
F 2 "" H 8600 4000 60  0000 C CNN
F 3 "" H 8600 4000 60  0000 C CNN
	1    8600 4000
	1    0    0    -1  
$EndComp
$Comp
L GND #PWR037
U 1 1 55539DE5
P 8600 6000
F 0 "#PWR037" H 8600 5750 50  0001 C CNN
F 1 "GND" H 8600 5850 50  0000 C CNN
F 2 "" H 8600 6000 60  0000 C CNN
F 3 "" H 8600 6000 60  0000 C CNN
	1    8600 6000
	1    0    0    -1  
$EndComp
Text Label 8000 6250 0    60   ~ 0
S[1...16]
$Comp
L CONN_02X03 P1
U 1 1 5552D5F6
P 5800 7050
F 0 "P1" H 5800 7250 50  0000 C CNN
F 1 "CONN_02X03" H 5800 6850 50  0000 C CNN
F 2 "cameraTrigger_rev1_0:tag_connect" H 5800 5850 60  0001 C CNN
F 3 "" H 5800 5850 60  0000 C CNN
	1    5800 7050
	1    0    0    -1  
$EndComp
Wire Wire Line
	1050 5200 1350 5200
Wire Wire Line
	1050 5300 1350 5300
Wire Wire Line
	1050 5400 1350 5400
Wire Wire Line
	1350 5500 1050 5500
Wire Wire Line
	1050 5600 1350 5600
Wire Wire Line
	1050 5700 1350 5700
Wire Wire Line
	1050 6000 1350 6000
Wire Wire Line
	1050 6100 1350 6100
Wire Wire Line
	1050 6200 1350 6200
Wire Wire Line
	1050 6300 1350 6300
Wire Wire Line
	1050 6400 1350 6400
Wire Wire Line
	1050 6500 1350 6500
Wire Wire Line
	1550 1100 1900 1100
Wire Wire Line
	1550 1300 1900 1300
Wire Wire Line
	1550 1500 1900 1500
Wire Wire Line
	1150 1300 1050 1300
Wire Wire Line
	1050 1300 1050 700 
Wire Wire Line
	900  700  8400 700 
Wire Wire Line
	2600 1100 2950 1100
Wire Wire Line
	2600 1300 2950 1300
Wire Wire Line
	2600 1500 2950 1500
Wire Wire Line
	2200 1300 2100 1300
Wire Wire Line
	2100 1300 2100 700 
Wire Wire Line
	3650 1100 4000 1100
Wire Wire Line
	3650 1300 4000 1300
Wire Wire Line
	3650 1500 4000 1500
Wire Wire Line
	3250 1300 3150 1300
Wire Wire Line
	3150 1300 3150 700 
Wire Wire Line
	4700 1100 5050 1100
Wire Wire Line
	4700 1300 5050 1300
Wire Wire Line
	4700 1500 5050 1500
Wire Wire Line
	4300 1300 4200 1300
Wire Wire Line
	4200 1300 4200 700 
Wire Wire Line
	5750 1100 6100 1100
Wire Wire Line
	5750 1300 6100 1300
Wire Wire Line
	5750 1500 6100 1500
Wire Wire Line
	5350 1300 5250 1300
Wire Wire Line
	5250 1300 5250 700 
Wire Wire Line
	6800 1100 7150 1100
Wire Wire Line
	6800 1300 7150 1300
Wire Wire Line
	6800 1500 7150 1500
Wire Wire Line
	6400 1300 6300 1300
Wire Wire Line
	6300 1300 6300 700 
Wire Wire Line
	7850 1100 8200 1100
Wire Wire Line
	7850 1300 8200 1300
Wire Wire Line
	7850 1500 8200 1500
Wire Wire Line
	7450 1300 7350 1300
Wire Wire Line
	7350 1300 7350 700 
Wire Wire Line
	8900 1100 9250 1100
Wire Wire Line
	8900 1300 9250 1300
Wire Wire Line
	8900 1500 9250 1500
Wire Wire Line
	8500 1300 8400 1300
Wire Wire Line
	8400 1300 8400 700 
Wire Wire Line
	1550 2200 1900 2200
Wire Wire Line
	1550 2400 1900 2400
Wire Wire Line
	1550 2600 1900 2600
Wire Wire Line
	1150 2400 1050 2400
Wire Wire Line
	1050 2400 1050 1800
Wire Wire Line
	900  1800 8400 1800
Wire Wire Line
	2600 2200 2950 2200
Wire Wire Line
	2600 2400 2950 2400
Wire Wire Line
	2600 2600 2950 2600
Wire Wire Line
	2200 2400 2100 2400
Wire Wire Line
	2100 2400 2100 1800
Wire Wire Line
	3650 2200 4000 2200
Wire Wire Line
	3650 2400 4000 2400
Wire Wire Line
	3650 2600 4000 2600
Wire Wire Line
	3250 2400 3150 2400
Wire Wire Line
	3150 2400 3150 1800
Wire Wire Line
	4700 2200 5050 2200
Wire Wire Line
	4700 2400 5050 2400
Wire Wire Line
	4700 2600 5050 2600
Wire Wire Line
	4300 2400 4200 2400
Wire Wire Line
	4200 2400 4200 1800
Wire Wire Line
	5750 2200 6100 2200
Wire Wire Line
	5750 2400 6100 2400
Wire Wire Line
	5750 2600 6100 2600
Wire Wire Line
	5350 2400 5250 2400
Wire Wire Line
	5250 2400 5250 1800
Wire Wire Line
	6800 2200 7150 2200
Wire Wire Line
	6800 2400 7150 2400
Wire Wire Line
	6800 2600 7150 2600
Wire Wire Line
	6400 2400 6300 2400
Wire Wire Line
	6300 2400 6300 1800
Wire Wire Line
	7850 2200 8200 2200
Wire Wire Line
	7850 2400 8200 2400
Wire Wire Line
	7850 2600 8200 2600
Wire Wire Line
	7450 2400 7350 2400
Wire Wire Line
	7350 2400 7350 1800
Wire Wire Line
	8900 2200 9250 2200
Wire Wire Line
	8900 2400 9250 2400
Wire Wire Line
	8900 2600 9250 2600
Wire Wire Line
	8500 2400 8400 2400
Wire Wire Line
	8400 2400 8400 1800
Wire Wire Line
	900  1800 900  1700
Wire Wire Line
	900  700  900  650 
Wire Wire Line
	1950 7100 1950 7350
Wire Wire Line
	2050 7100 2050 7350
Wire Wire Line
	2150 7100 2150 7350
Wire Wire Line
	2250 7100 2250 7350
Wire Wire Line
	2350 7100 2350 7350
Wire Wire Line
	2450 7100 2450 7350
Wire Wire Line
	2550 7100 2550 7350
Wire Wire Line
	2650 7100 2650 7350
Wire Wire Line
	2750 7100 2750 7350
Wire Wire Line
	2850 7100 2850 7350
Wire Wire Line
	2950 7100 2950 7350
Wire Wire Line
	3050 7100 3050 7350
Wire Wire Line
	3150 7100 3150 7350
Wire Wire Line
	3250 7100 3250 7350
Wire Wire Line
	3850 6500 4200 6500
Wire Wire Line
	3850 6400 4200 6400
Wire Wire Line
	3850 6300 4200 6300
Wire Wire Line
	3850 6200 4200 6200
Wire Wire Line
	3850 5500 4200 5500
Wire Wire Line
	3850 5400 4200 5400
Wire Wire Line
	3850 5300 4200 5300
Wire Wire Line
	3850 5200 4200 5200
Wire Wire Line
	3250 4600 3250 4300
Wire Wire Line
	3150 4600 3150 4300
Wire Wire Line
	3050 4600 3050 4300
Wire Wire Line
	2950 4600 2950 4300
Wire Wire Line
	2850 4600 2850 4300
Wire Wire Line
	2750 4600 2750 4300
Wire Wire Line
	2650 4600 2650 4300
Wire Wire Line
	2550 4600 2550 4300
Wire Wire Line
	2450 4600 2450 4300
Wire Wire Line
	2350 4600 2350 4300
Wire Wire Line
	2250 4600 2250 4300
Wire Wire Line
	2150 4600 2150 4300
Wire Wire Line
	2050 4600 2050 4300
Wire Wire Line
	1950 4600 1950 4300
Connection ~ 1050 1800
Connection ~ 1050 700 
Connection ~ 2100 700 
Connection ~ 2100 1800
Connection ~ 3150 1800
Connection ~ 4200 1800
Connection ~ 5250 1800
Connection ~ 6300 1800
Connection ~ 3150 700 
Connection ~ 4200 700 
Connection ~ 5250 700 
Connection ~ 6300 700 
Connection ~ 7350 1800
Connection ~ 7350 700 
Wire Bus Line
	8500 6250 8500 5600
Wire Bus Line
	6300 6250 8500 6250
Wire Wire Line
	6200 6150 6200 6000
Wire Wire Line
	6300 6000 6300 6150
Wire Wire Line
	6400 6150 6400 6000
Wire Wire Line
	6500 6000 6500 6150
Wire Wire Line
	6600 6150 6600 6000
Wire Wire Line
	6700 6000 6700 6150
Wire Wire Line
	6800 6150 6800 6000
Wire Wire Line
	6900 6150 6900 6000
Wire Wire Line
	7000 6000 7000 6150
Wire Wire Line
	7100 6150 7100 6000
Wire Wire Line
	7200 6000 7200 6150
Wire Wire Line
	7300 6150 7300 6000
Wire Wire Line
	7400 6000 7400 6150
Wire Wire Line
	7500 6000 7500 6150
Wire Wire Line
	7600 6150 7600 6000
Wire Wire Line
	8400 5700 8000 5700
Wire Wire Line
	6100 3500 6100 3800
Wire Wire Line
	6600 3800 6600 3550
Wire Wire Line
	6700 3800 6700 3000
Wire Wire Line
	6700 3000 6200 3000
Wire Wire Line
	6200 3000 6200 3150
Wire Wire Line
	6800 3800 6800 3150
Wire Wire Line
	6800 3150 6600 3150
Wire Wire Line
	7300 3800 7300 3350
Wire Wire Line
	7300 3350 8450 3350
Wire Wire Line
	8750 3350 8850 3350
Wire Wire Line
	8850 3350 8850 3450
Wire Wire Line
	8850 3450 9700 3450
Wire Wire Line
	7400 3450 7400 3800
Wire Wire Line
	7400 3450 7800 3450
Wire Wire Line
	7500 3800 7500 3550
Wire Wire Line
	7500 3550 8450 3550
Wire Wire Line
	8750 3550 9700 3550
Wire Wire Line
	7600 3800 7600 3650
Wire Wire Line
	7600 3650 8150 3650
Wire Wire Line
	8150 3650 8150 3850
Wire Wire Line
	6900 3800 6900 3050
Wire Wire Line
	6900 3050 7000 3050
Wire Wire Line
	7000 3050 7000 3200
Wire Wire Line
	8100 3450 8150 3450
Wire Wire Line
	8150 3450 8150 3550
Connection ~ 8150 3550
Wire Wire Line
	7000 3700 7000 3800
Wire Wire Line
	7100 3550 7100 3800
Wire Wire Line
	7200 3400 7200 3800
Wire Wire Line
	3850 5600 4200 5600
Wire Wire Line
	3850 5700 4200 5700
Wire Wire Line
	3850 5800 4200 5800
Wire Wire Line
	3850 5900 4300 5900
Wire Wire Line
	4300 5900 4300 6700
Wire Wire Line
	3850 6000 4200 6000
Wire Wire Line
	3850 6100 4400 6100
Wire Wire Line
	4400 6100 4400 5100
Wire Wire Line
	1050 5800 1350 5800
Wire Wire Line
	1350 5900 950  5900
Wire Wire Line
	950  5900 950  6600
Wire Wire Line
	8000 5600 8400 5600
Wire Wire Line
	8000 5500 8400 5500
Wire Wire Line
	8000 5400 8400 5400
Wire Wire Line
	8000 4500 8400 4500
Wire Wire Line
	750  5800 650  5800
Wire Wire Line
	650  5800 650  5600
Wire Wire Line
	8000 4400 8400 4400
Wire Wire Line
	8000 5100 8600 5100
Wire Wire Line
	8600 5100 8600 6000
Wire Wire Line
	8000 5000 8600 5000
Wire Wire Line
	8600 5000 8600 4000
Wire Bus Line
	8500 5600 9250 5600
Wire Wire Line
	5200 7050 5550 7050
Wire Wire Line
	6050 7050 6400 7050
Wire Wire Line
	6050 7150 6400 7150
Wire Wire Line
	5550 6950 5200 6950
Wire Wire Line
	5550 7150 5450 7150
Wire Wire Line
	5450 7150 5450 7300
Wire Wire Line
	6050 6950 6200 6950
Wire Wire Line
	6200 6950 6200 6750
$Comp
L +3V3 #PWR038
U 1 1 5552ED82
P 6200 6750
F 0 "#PWR038" H 6200 6600 50  0001 C CNN
F 1 "+3V3" H 6200 6890 50  0000 C CNN
F 2 "" H 6200 6750 60  0000 C CNN
F 3 "" H 6200 6750 60  0000 C CNN
	1    6200 6750
	1    0    0    -1  
$EndComp
$Comp
L GND #PWR039
U 1 1 5552EDBE
P 5450 7300
F 0 "#PWR039" H 5450 7050 50  0001 C CNN
F 1 "GND" H 5450 7150 50  0000 C CNN
F 2 "" H 5450 7300 60  0000 C CNN
F 3 "" H 5450 7300 60  0000 C CNN
	1    5450 7300
	1    0    0    -1  
$EndComp
Text Label 5300 6950 0    60   ~ 0
TDIO
Text Label 5300 7050 0    60   ~ 0
TCK
Text Label 6200 7050 0    60   ~ 0
RX
Text Label 6200 7150 0    60   ~ 0
TX
Wire Wire Line
	5600 5100 5700 5100
Wire Wire Line
	5600 3850 5600 5500
Wire Wire Line
	5700 5400 5550 5400
Wire Wire Line
	5550 5400 5550 6100
Wire Wire Line
	5600 5500 5700 5500
Connection ~ 5600 5100
Wire Wire Line
	5700 5600 5550 5600
Connection ~ 5550 5600
$Comp
L GND #PWR040
U 1 1 55530B94
P 5550 6100
F 0 "#PWR040" H 5550 5850 50  0001 C CNN
F 1 "GND" H 5550 5950 50  0000 C CNN
F 2 "" H 5550 6100 60  0000 C CNN
F 3 "" H 5550 6100 60  0000 C CNN
	1    5550 6100
	1    0    0    -1  
$EndComp
$Comp
L +3V3 #PWR041
U 1 1 55530BD0
P 5600 3850
F 0 "#PWR041" H 5600 3700 50  0001 C CNN
F 1 "+3V3" H 5600 3990 50  0000 C CNN
F 2 "" H 5600 3850 60  0000 C CNN
F 3 "" H 5600 3850 60  0000 C CNN
	1    5600 3850
	1    0    0    -1  
$EndComp
$Comp
L R R5
U 1 1 555324B3
P 5900 3500
F 0 "R5" V 5980 3500 50  0000 C CNN
F 1 "R" V 5900 3500 50  0000 C CNN
F 2 "Resistors_SMD:R_0402" V 5830 3500 30  0001 C CNN
F 3 "" H 5900 3500 30  0000 C CNN
	1    5900 3500
	0    1    1    0   
$EndComp
$Comp
L +3V3 #PWR042
U 1 1 55532A3A
P 5650 3400
F 0 "#PWR042" H 5650 3250 50  0001 C CNN
F 1 "+3V3" H 5650 3540 50  0000 C CNN
F 2 "" H 5650 3400 60  0000 C CNN
F 3 "" H 5650 3400 60  0000 C CNN
	1    5650 3400
	1    0    0    -1  
$EndComp
Wire Wire Line
	5750 3500 5650 3500
Wire Wire Line
	5650 3500 5650 3400
Wire Wire Line
	6050 3500 6100 3500
Wire Wire Line
	8000 5300 8400 5300
Text Label 8100 5300 0    60   ~ 0
LAT
$Comp
L OSCILLATOR OSC1
U 1 1 55531402
P 4500 4600
F 0 "OSC1" H 4350 4900 60  0000 C CNN
F 1 "OSCILLATOR" H 4550 4550 60  0000 C CNN
F 2 "4Squared:32_25_oscilator" H 4500 4600 60  0001 C CNN
F 3 "" H 4500 4600 60  0000 C CNN
	1    4500 4600
	1    0    0    -1  
$EndComp
Wire Wire Line
	4950 4550 5000 4550
Wire Wire Line
	5000 4550 5000 4650
Wire Wire Line
	4000 4400 3950 4400
Wire Wire Line
	3950 4400 3950 4300
$Comp
L +3V3 #PWR043
U 1 1 555318B5
P 3950 4300
F 0 "#PWR043" H 3950 4150 50  0001 C CNN
F 1 "+3V3" H 3950 4440 50  0000 C CNN
F 2 "" H 3950 4300 60  0000 C CNN
F 3 "" H 3950 4300 60  0000 C CNN
	1    3950 4300
	1    0    0    -1  
$EndComp
$Comp
L GND #PWR044
U 1 1 555318F3
P 5000 4650
F 0 "#PWR044" H 5000 4400 50  0001 C CNN
F 1 "GND" H 5000 4500 50  0000 C CNN
F 2 "" H 5000 4650 60  0000 C CNN
F 3 "" H 5000 4650 60  0000 C CNN
	1    5000 4650
	1    0    0    -1  
$EndComp
Wire Wire Line
	4000 4550 3800 4550
Wire Wire Line
	4950 4400 5250 4400
Text Label 5000 4400 0    60   ~ 0
GSCLK
Text Label 3800 4550 0    60   ~ 0
CLK_EN
$Comp
L GND #PWR045
U 1 1 5552F8AF
P 9600 3900
F 0 "#PWR045" H 9600 3650 50  0001 C CNN
F 1 "GND" H 9600 3750 50  0000 C CNN
F 2 "" H 9600 3900 60  0000 C CNN
F 3 "" H 9600 3900 60  0000 C CNN
	1    9600 3900
	1    0    0    -1  
$EndComp
Wire Wire Line
	9700 3750 9600 3750
Wire Wire Line
	9600 3750 9600 3900
Wire Wire Line
	9600 3350 9700 3350
Wire Wire Line
	9600 3000 9600 3350
$Comp
L FUSE F1
U 1 1 5552FB2C
P 9850 3000
F 0 "F1" H 9950 3050 50  0000 C CNN
F 1 "FUSE" H 9750 2950 50  0000 C CNN
F 2 "Resistors_SMD:R_0402" H 9850 3000 60  0001 C CNN
F 3 "" H 9850 3000 60  0000 C CNN
	1    9850 3000
	1    0    0    -1  
$EndComp
Wire Wire Line
	10100 3000 10100 2800
$Comp
L +5V #PWR046
U 1 1 5552FE5C
P 10100 2800
F 0 "#PWR046" H 10100 2650 50  0001 C CNN
F 1 "+5V" H 10100 2940 50  0000 C CNN
F 2 "" H 10100 2800 60  0000 C CNN
F 3 "" H 10100 2800 60  0000 C CNN
	1    10100 2800
	1    0    0    -1  
$EndComp
Wire Wire Line
	5400 4200 5700 4200
Text Label 5400 4200 0    60   ~ 0
CLK_EN
$EndSCHEMATC
